[
  {
    "idNote": "5ev67ace15p",
    "value": "sleep",
    "complete": true
  },
  {
    "idNote": "ufqjorxpb6",
    "value": "run",
    "complete": false
  },
  {
    "idNote": "ta0nqvy0bio",
    "value": "buy milk",
    "complete": false
  },
  {
    "idNote": "o1gru4gt3v9",
    "value": "go to shooping",
    "complete": true
  },
  {
    "idNote": "t5z6b9g028q",
    "value": "eateateat",
    "complete": false
  },
  {
    "idNote": "aqvvcnus54",
    "value": "la la la",
    "complete": true
  },
  {
    "idNote": "zdf99tyerjd",
    "value": "buy bread",
    "complete": false
  },
  {
    "idNote": "5unh1y1xmsc",
    "value": "clean the house",
    "complete": false
  },
  {
    "idNote": "9ad9o2ixrzt",
    "value": "shopping",
    "complete": false
  },
  {
    "idNote": "fld82to67zj",
    "value": "buy shoes",
    "complete": false
  },
  {
    "idNote": "aqivy0wg1dq",
    "value": "buy mascara",
    "complete": true
  },
  {
    "idNote": "vf9csjona4",
    "value": "go to the gym",
    "complete": false
  }
]